…
2.Keep only SOFT DRINKS 12/18&15PK CAN CAR

``` r
milk_ids <- product %>%
  filter(SUB_COMMODITY_DESC == "SOFT DRINKS 12/18&15PK CAN CAR") %>%
  pull(PRODUCT_ID)

transaction_data <- transaction_data %>%
  filter(PRODUCT_ID %in% milk_ids)

print(transaction_data)
```

    ## # A tibble: 39,352 x 12
    ##    household_key   BASKET_ID   DAY PRODUCT_ID QUANTITY SALES_VALUE STORE_ID
    ##            <dbl>       <dbl> <dbl>      <dbl>    <dbl>       <dbl>    <dbl>
    ##  1          1172 26985025264     1    5569230        1        2.33      396
    ##  2          1060 26985040735     1    5566716        2        4.66      315
    ##  3          1060 26985040735     1    5569230        1        2.33      315
    ##  4          1060 26985040735     1    8090521        1        4.59      315
    ##  5           212 26985205886     1    6534078        2        4.66      288
    ##  6           212 26985205886     1    8090560        1        4.59      288
    ##  7           212 26985205886     1    8177622        1        2.33      288
    ##  8          2371 27008801708     3    6534330        1        2.33      317
    ##  9          1130 27008809354     3    5568489        2        4.66      367
    ## 10          1130 27008809354     3    9392700        1        2.33      367
    ## # i 39,342 more rows
    ## # i 5 more variables: RETAIL_DISC <dbl>, TRANS_TIME <chr>, WEEK_NO <dbl>,
    ## #   COUPON_DISC <dbl>, COUPON_MATCH_DISC <dbl>
…
check for the first product

``` r
check1 <-causal_data %>%
  filter(PRODUCT_ID == 5569230)

print(check1)
```

    ## # A tibble: 4,945 x 5
    ##    PRODUCT_ID STORE_ID WEEK_NO display mailer
    ##         <dbl>    <dbl>   <dbl> <chr>   <chr> 
    ##  1    5569230      286      10 2       D     
    ##  2    5569230      286      11 0       D     
    ##  3    5569230      286      12 2       D     
    ##  4    5569230      286      15 2       D     
    ##  5    5569230      286      16 0       D     
    ##  6    5569230      286      18 2       A     
    ##  7    5569230      286      19 2       D     
    ##  8    5569230      286      30 2       D     
    ##  9    5569230      286      34 0       D     
    ## 10    5569230      286      39 2       A     
    ## # i 4,935 more rows
…
