…
2.Keep only BEERALEMALT LIQUORS

``` r
milk_ids <- product %>%
  filter(SUB_COMMODITY_DESC == "BEERALEMALT LIQUORS") %>%
  pull(PRODUCT_ID)

transaction_data <- transaction_data %>%
  filter(PRODUCT_ID %in% milk_ids)

print(transaction_data)
```

    ## # A tibble: 18,192 x 12
    ##    household_key   BASKET_ID   DAY PRODUCT_ID QUANTITY SALES_VALUE STORE_ID
    ##            <dbl>       <dbl> <dbl>      <dbl>    <dbl>       <dbl>    <dbl>
    ##  1           271 26997082949     2    5577007        1        7.99      329
    ##  2           293 27008832359     3     910473        1        4.49      296
    ##  3           293 27008832359     3    1105549        1        3.49      296
    ##  4          2324 27008841762     3     849202        1        8.99    32004
    ##  5           315 27008952287     3    5565425        1        6.99      327
    ##  6          2192 27009045265     3    1065538        1       16.0       401
    ##  7           924 27009222177     3    1004436        1        7.99      400
    ##  8          1060 27021140059     3     926164        1        9.49      315
    ##  9          1060 27021140059     3     958663        1        4.99      315
    ## 10          2110 27021248054     4    1018818        1       14.0       375
    ## # i 18,182 more rows
    ## # i 5 more variables: RETAIL_DISC <dbl>, TRANS_TIME <chr>, WEEK_NO <dbl>,
    ## #   COUPON_DISC <dbl>, COUPON_MATCH_DISC <dbl>
…
check for the first product

``` r
check1 <-causal_data %>%
  filter(PRODUCT_ID == 1065538)

print(check1)
```

    ## # A tibble: 5,295 x 5
    ##    PRODUCT_ID STORE_ID WEEK_NO display mailer
    ##         <dbl>    <dbl>   <dbl> <chr>   <chr> 
    ##  1    1065538      289      10 7       0     
    ##  2    1065538      289      11 2       0     
    ##  3    1065538      289      15 0       A     
    ##  4    1065538      289      16 7       A     
    ##  5    1065538      289      17 2       0     
    ##  6    1065538      289      24 0       A     
    ##  7    1065538      289      25 0       A     
    ##  8    1065538      289      30 6       0     
    ##  9    1065538      289      32 0       A     
    ## 10    1065538      289      34 6       0     
    ## # i 5,285 more rows
…
