…
2.Keep only FLUID MILK WHITE ONLY

``` r
milk_ids <- product %>%
  filter(SUB_COMMODITY_DESC == "FLUID MILK WHITE ONLY") %>%
  pull(PRODUCT_ID)

transaction_data <- transaction_data %>%
  filter(PRODUCT_ID %in% milk_ids)

print(transaction_data)
```

    ## # A tibble: 65,764 x 12
    ##    household_key   BASKET_ID   DAY PRODUCT_ID QUANTITY SALES_VALUE STORE_ID
    ##            <dbl>       <dbl> <dbl>      <dbl>    <dbl>       <dbl>    <dbl>
    ##  1          1172 26985025264     1    1106523        1        1.5       396
    ##  2          1060 26985040735     1    1081189        1        1.16      315
    ##  3          2305 26996870743     2    1029743        1        2.49      414
    ##  4           271 26997082949     2    1126899        1        2.49      329
    ##  5           718 26997328096     2    1029743        1        2.49      324
    ##  6           347 27008810686     3    1029743        1        2.49      367
    ##  7           347 27008813029     3    1126899        1        2.49      367
    ##  8           293 27008831408     3    1106523        1        2.49      296
    ##  9           293 27008831439     3    1070820        1        2.49      296
    ## 10          2324 27008841880     3    1106523        1        2.49    32004
    ## # i 65,754 more rows
    ## # i 5 more variables: RETAIL_DISC <dbl>, TRANS_TIME <chr>, WEEK_NO <dbl>,
    ## #   COUPON_DISC <dbl>, COUPON_MATCH_DISC <dbl>
…
check for the first product

``` r
check1 <-causal_data %>%
  filter(PRODUCT_ID == 1029743)

print(check1)
```

    ## # A tibble: 3,270 x 5
    ##    PRODUCT_ID STORE_ID WEEK_NO display mailer
    ##         <dbl>    <dbl>   <dbl> <chr>   <chr> 
    ##  1    1029743      286      11 0       D     
    ##  2    1029743      286      18 0       D     
    ##  3    1029743      286      21 0       A     
    ##  4    1029743      286      23 0       D     
    ##  5    1029743      286      25 0       D     
    ##  6    1029743      286      26 0       H     
    ##  7    1029743      286      29 0       D     
    ##  8    1029743      286      38 0       C     
    ##  9    1029743      286      46 0       C     
    ## 10    1029743      286      47 0       D     
    ## # i 3,260 more rows
…
