…
2.Keep only TOILET TISSUE

``` r
milk_ids <- product %>%
  filter(SUB_COMMODITY_DESC == "TOILET TISSUE") %>%
  pull(PRODUCT_ID)

transaction_data <- transaction_data %>%
  filter(PRODUCT_ID %in% milk_ids)

print(transaction_data)
```

    ## # A tibble: 13,310 x 12
    ##    household_key   BASKET_ID   DAY PRODUCT_ID QUANTITY SALES_VALUE STORE_ID
    ##            <dbl>       <dbl> <dbl>      <dbl>    <dbl>       <dbl>    <dbl>
    ##  1          1172 26985025264     1    1075214        1        5.99      396
    ##  2          1060 26985040735     1    9553288        1        8.49      315
    ##  3           347 27008813029     3    1040145        1        4.99      367
    ##  4          2105 27008940074     2    9420312        1        0.99      446
    ##  5           924 27009222177     3    9420312        1        0.99      400
    ##  6           474 27021262230     4    1065593        1        1         352
    ##  7          1558 27021343894     4    1083733        1        2.19      359
    ##  8          2352 27021363165     4    1070272        1        3.99      321
    ##  9           474 27031281714     5    1065593        1        1         352
    ## 10          2328 27045601594     6     933354        1        7.49      406
    ## # i 13,300 more rows
    ## # i 5 more variables: RETAIL_DISC <dbl>, TRANS_TIME <chr>, WEEK_NO <dbl>,
    ## #   COUPON_DISC <dbl>, COUPON_MATCH_DISC <dbl>
…
check for the first product

``` r
check1 <-causal_data %>%
  filter(PRODUCT_ID == 1065593)

print(check1)
```

    ## # A tibble: 1,653 x 5
    ##    PRODUCT_ID STORE_ID WEEK_NO display mailer
    ##         <dbl>    <dbl>   <dbl> <chr>   <chr> 
    ##  1    1065593      286      20 5       A     
    ##  2    1065593      286      35 5       C     
    ##  3    1065593      286      37 5       0     
    ##  4    1065593      286      43 0       D     
    ##  5    1065593      286      49 5       C     
    ##  6    1065593      286      50 5       C     
    ##  7    1065593      286      51 5       0     
    ##  8    1065593      286      52 5       0     
    ##  9    1065593      286      53 9       F     
    ## 10    1065593      286      54 9       C     
    ## # i 1,643 more rows
…
