…
# Summarize the department names only
department_summary <- transaction_with_product %>%
  count(DEPARTMENT, sort = TRUE)

# View the result
print(department_summary)
```

    ## # A tibble: 44 × 2
    ##    DEPARTMENT          n
    ##    <chr>           <int>
    ##  1 GROCERY       1646076
    ##  2 DRUG GM        277232
    ##  3 PRODUCE        257290
    ##  4 MEAT-PCKGD     111957
    ##  5 MEAT            88416
    ##  6 DELI            62787
    ##  7 PASTRY          38179
    ##  8 NUTRITION       32164
    ##  9 KIOSK-GAS       22059
    ## 10 SEAFOOD-PCKGD   11216
    ## # ℹ 34 more rows
…
# 2. Group by BRAND and summarize total sales
commodity_desc_sales_in_grocery <- grocery_data %>%
  group_by(SUB_COMMODITY_DESC) %>%
  summarise(SUB_COMMODITY_DESC_SALES = sum(SALES_VALUE, na.rm = TRUE)) %>%
  arrange(desc(SUB_COMMODITY_DESC_SALES))

# 3. Pick the top brand
top_commodity_in_grocery <- commodity_desc_sales_in_grocery %>%
  slice_head(n = 5)

# View the result
print(commodity_desc_sales_in_grocery)
```

    ## # A tibble: 736 × 2
    ##    SUB_COMMODITY_DESC             SUB_COMMODITY_DESC_SALES
    ##    <chr>                                             <dbl>
    ##  1 FLUID MILK WHITE ONLY                           161907.
    ##  2 SOFT DRINKS 12/18&15PK CAN CAR                  158188.
    ##  3 BEERALEMALT LIQUORS                             148720.
    ##  4 SHREDDED CHEESE                                  67663.
    ##  5 TOILET TISSUE                                    58630.
    ##  6 SFT DRNK 2 LITER BTL CARB INCL                   53603.
    ##  7 POTATO CHIPS                                     51481.
    ##  8 PREMIUM                                          50581.
    ##  9 SNACKS/APPETIZERS                                48469.
    ## 10 DAIRY CASE 100% PURE JUICE - O                   47539.
    ## # ℹ 726 more rows
…
8.a.Set target sub-commodity “FLUID MILK WHITE ONLY”

``` r
target_sub_commodity <- "FLUID MILK WHITE ONLY"

# Get all Product IDs under this sub-commodity
target_products <- product %>%
  filter(SUB_COMMODITY_DESC == target_sub_commodity) %>%
  distinct(PRODUCT_ID)

print(target_products)
```

    ## # A tibble: 194 × 1
    ##    PRODUCT_ID
    ##         <dbl>
    ##  1      28272
    ##  2      32553
    ##  3      32916
    ##  4      34160
    ##  5      34873
    ##  6      35082
    ##  7      40067
    ##  8      40885
    ##  9      41015
    ## 10      42100
    ## # ℹ 184 more rows
8.b.Build the full dataset: Sales of Household \* Store \* Week

``` r
# Get all unique households, stores, and weeks
households <- transaction_data %>% distinct(household_key)
stores <- transaction_data %>% distinct(STORE_ID)
weeks <- transaction_data %>% distinct(WEEK_NO)

# Expand grid: Household x Store x Week
panel <- crossing(households, stores, weeks)

print(panel)
```

    ## # A tibble: 148,410,000 × 3
    ##    household_key STORE_ID WEEK_NO
    ##            <dbl>    <dbl>   <dbl>
    ##  1             1        1       1
    ##  2             1        1       2
    ##  3             1        1       3
    ##  4             1        1       4
    ##  5             1        1       5
    ##  6             1        1       6
    ##  7             1        1       7
    ##  8             1        1       8
    ##  9             1        1       9
    ## 10             1        1      10
    ## # ℹ 148,409,990 more rows
…
print(milk_sales)
```

    ## # A tibble: 54,448 × 8
    ##    household_key STORE_ID WEEK_NO SALES_VALUE QUANTITY RETAIL_DISC COUPON_DISC
    ##            <dbl>    <dbl>   <dbl>       <dbl>    <dbl>       <dbl>       <dbl>
    ##  1             1      436      13        1           1       -0.89           0
    ##  2             1      436      14        2           2       -1.78           0
    ##  3             1      436      15        1.89        1        0              0
    ##  4             1      436      16        1           1       -0.89           0
    ##  5             1      436      19        1.89        1        0              0
    ##  6             1      436      20        1           1       -0.89           0
    ##  7             1      436      22        1.89        1        0              0
    ##  8             1      436      23        1.5         1       -0.39           0
    ##  9             1      436      25        1           1       -0.89           0
    ## 10             1      436      30        1.89        1        0              0
    ## # ℹ 54,438 more rows
    ## # ℹ 1 more variable: COUPON_MATCH_DISC <dbl>
…
# Collapse to store-week level: if any product is displayed or mailed, mark it as 1
causal_milk_store_week <- causal_milk %>%
  group_by(STORE_ID, WEEK_NO) %>%
  summarise(
    display = max(display, na.rm = TRUE),
    mailer = max(mailer, na.rm = TRUE),
    .groups = "drop"
  )

# Preview
print(causal_milk_store_week)
```

    ## # A tibble: 6,854 × 4
    ##    STORE_ID WEEK_NO display mailer
    ##       <dbl>   <dbl> <chr>   <chr> 
    ##  1      286       9 0       D     
    ##  2      286      11 0       D     
    ##  3      286      13 0       D     
    ##  4      286      14 0       D     
    ##  5      286      16 0       D     
    ##  6      286      18 0       D     
    ##  7      286      20 0       D     
    ##  8      286      21 0       A     
    ##  9      286      23 0       D     
    ## 10      286      25 0       D     
    ## # ℹ 6,844 more rows
…
#Replace NAs with 0 (is this reasonable?)
panel_small_joined <- panel_small_joined %>%
  mutate(
    display = if_else(is.na(display), "0", as.character(display)),
    mailer = if_else(is.na(mailer), "0", as.character(mailer))
  )

#Check
panel_small_joined %>%
  filter(STORE_ID == 286, WEEK_NO %in% c(9, 11, 13, 14,21)) %>%
  select(display, mailer)
```

    ## # A tibble: 2,500 × 2
    ##    display mailer
    ##    <chr>   <chr> 
    ##  1 0       D     
    ##  2 0       D     
    ##  3 0       D     
    ##  4 0       D     
    ##  5 0       A     
    ##  6 0       D     
    ##  7 0       D     
    ##  8 0       D     
    ##  9 0       D     
    ## 10 0       A     
    ## # ℹ 2,490 more rows
…
``` r
#.Set target sub-commodity “National”
target_sub_commodity <- "National"

# Get all Product IDs under this sub-commodity
target_products <- product %>%
  filter(BRAND == target_sub_commodity) %>%
  distinct(PRODUCT_ID)

print(target_products)
```

    ## # A tibble: 78,537 × 1
    ##    PRODUCT_ID
    ##         <dbl>
    ##  1      25671
    ##  2      26081
    ##  3      26889
    ##  4      27021
    ##  5      28513
    ##  6      28748
    ##  7      28919
    ##  8      28929
    ##  9      29096
    ## 10      29252
    ## # ℹ 78,527 more rows
…
print(national_sales)
```

    ## # A tibble: 143,449 × 8
    ##    household_key STORE_ID WEEK_NO SALES_VALUE QUANTITY RETAIL_DISC COUPON_DISC
    ##            <dbl>    <dbl>   <dbl>       <dbl>    <dbl>       <dbl>       <dbl>
    ##  1             1      436       8        65.9       28      -11.1        -1   
    ##  2             1      436      10        38.1       13       -7           0   
    ##  3             1      436      13        18.4        8       -5.54        0   
    ##  4             1      436      14        56.6       28       -7.21       -1.5 
    ##  5             1      436      15        43.7       16      -11.4         0   
    ##  6             1      436      16        18.8        7       -1.98        0   
    ##  7             1      436      19        99.0       39       -5.81       -2.25
    ##  8             1      436      20        78.7       36      -12.3         0   
    ##  9             1      436      22        61.9       27      -10.6         0   
    ## 10             1      436      23        46.6       19       -2.72        0   
    ## # ℹ 143,439 more rows
    ## # ℹ 1 more variable: COUPON_MATCH_DISC <dbl>
…
